<?xml version="1.0" encoding="utf-8"?>
<!-- Generator: Adobe Illustrator 21.1.0, SVG Export Plug-In . SVG Version: 6.00 Build 0)  -->
<svg version="1.1" id="Layer_1" xmlns="http://www.w3.org/2000/svg" xmlns:xlink="http://www.w3.org/1999/xlink" x="0px" y="0px"
	 viewBox="0 0 157.4 28.9" style="enable-background:new 0 0 157.4 28.9;" xml:space="preserve">
<style type="text/css">
	.st0{fill:#5E4ECB;}
	.st1{fill:#BBAED6;}
</style>
<title>Athena Logo</title>
<path class="st0" d="M148.2,1.3h-2.4v6.6h-1.6V1.3h-2.4V0h6.4L148.2,1.3L148.2,1.3z"/>
<path class="st0" d="M151.2,0l2,5.7l2-5.7h2.1v7.9h-1.6V5.7l0.2-3.7l-2.1,5.9h-1.1L150.6,2l0.2,3.7v2.2h-1.6V0H151.2z"/>
<path class="st0" d="M16.7,22H7.4l-1.8,5.3H0L9.6,1.6h4.9l9.6,25.7h-5.6L16.7,22z M8.8,17.7h6.4L12,8.1L8.8,17.7z"/>
<polygon class="st0" points="43.7,5.9 35.8,5.9 35.8,27.3 30.5,27.3 30.5,5.9 22.8,5.9 22.8,1.6 43.7,1.6 "/>
<polygon class="st0" points="67.5,27.3 62.3,27.3 62.3,16.3 52,16.3 52,27.3 46.7,27.3 46.7,1.6 52,1.6 52,12 62.3,12 62.3,1.6 
	67.5,1.6 "/>
<polygon class="st0" points="117.1,27.3 111.8,27.3 101.5,10.4 101.5,27.3 96.2,27.3 96.2,1.6 101.5,1.6 111.8,18.5 111.8,1.6 
	117.1,1.6 "/>
<path class="st0" d="M136.5,22h-9.2l-1.8,5.3h-5.6l9.5-25.7h4.9l9.6,25.7h-5.6L136.5,22z M128.7,17.7h6.4l-3.2-9.6L128.7,17.7z"/>
<rect x="74" y="1.6" class="st1" width="17.2" height="4.3"/>
<rect x="74" y="12.3" class="st1" width="17.2" height="4.3"/>
<polygon class="st1" points="74.8,7.5 71,3.8 74.8,0 "/>
<rect x="74" y="23" class="st1" width="17.2" height="4.3"/>
<polygon class="st1" points="74.8,28.9 71,25.1 74.8,21.4 "/>
<polygon class="st1" points="90.5,10.7 94.2,14.4 90.5,18.2 "/>
</svg>
