<?xml version="1.0" encoding="utf-8"?>
<!-- Generator: Adobe Illustrator 21.1.0, SVG Export Plug-In . SVG Version: 6.00 Build 0)  -->
<svg version="1.1" id="Layer_1" xmlns="http://www.w3.org/2000/svg" xmlns:xlink="http://www.w3.org/1999/xlink" x="0px" y="0px"
	 viewBox="0 0 245.6 130" style="enable-background:new 0 0 245.6 130;" xml:space="preserve">
<style type="text/css">
	.st0{fill:#5E4ECB;}
	.st1{fill:#FAB900;}
	.st2{fill:#FCC200;}
	.st3{fill:#FFCC00;}
</style>
<g>
	<path class="st0" d="M5.9,63.7v-0.1c0-11.9,9.3-21.3,22-21.3c7.2,0,12.3,2.2,16.6,6l-6.7,8C35,53.8,32,52.4,28,52.4
		c-5.9,0-10.5,5-10.5,11.2v0.1c0,6.6,4.6,11.3,11.1,11.3c2.7,0,4.8-0.6,6.5-1.7v-5h-8.1v-8.3l18.8,0v18.4
		c-4.3,3.6-10.3,6.3-17.8,6.3C15.5,84.8,5.9,76.1,5.9,63.7"/>
	<path class="st0" d="M59.5,42.3h11.3l18,42.5H76.2l-3.1-7.5H56.8l-3,7.5H41.5L59.5,42.3z M69.7,68.1l-4.7-12l-4.8,12H69.7z"/>
	<polygon class="st0" points="88,42.3 99.8,42.3 99.8,74.5 120.4,74.5 120.4,84.8 88,84.8 	"/>
	<path class="st0" d="M134.9,42.3h11.3l18,42.5h-12.5l-3.1-7.5h-16.3l-3,7.5h-12.3L134.9,42.3z M145.1,68.2l-4.7-12l-4.8,12H145.1z"
		/>
	<polygon class="st0" points="187.4,63.1 202,84.8 188.4,84.8 180.3,72 173.4,63.2 159.5,42.3 173,42.3 180.5,54.3 	"/>
	<polygon class="st0" points="211.7,68.9 195.6,42.3 209,42.3 217.7,57.8 226.5,42.3 239.7,42.3 223.5,68.7 223.5,84.8 211.7,84.8 	
		"/>
</g>
<g>
	<path class="st1" d="M184,59.1c-2.5-1.8-5.9-1.3-7.7,1.2c-1.8,2.5-1.3,5.9,1.2,7.7c2.5,1.8,5.9,1.3,7.7-1.2
		C187,64.4,186.5,60.9,184,59.1z"/>
	<ellipse transform="matrix(0.5639 -0.8258 0.8258 0.5639 37.3723 178.4376)" class="st1" cx="187.6" cy="53.8" rx="5" ry="5"/>
	<path class="st1" d="M196,41.2c-2.1-1.3-4.8-0.7-6.1,1.3c-1.3,2.1-0.7,4.8,1.3,6.1c2.1,1.3,4.8,0.7,6.1-1.3
		C198.7,45.2,198.1,42.5,196,41.2z"/>
	<ellipse transform="matrix(0.5398 -0.8418 0.8418 0.5398 60.5148 184.1912)" class="st2" cx="198.7" cy="36.7" rx="4.1" ry="4.1"/>
	<ellipse transform="matrix(0.4526 -0.8917 0.8917 0.4526 84.9765 196.9331)" class="st3" cx="202.9" cy="29.2" rx="3.7" ry="3.7"/>
	<path class="st3" d="M207.5,19.1c-1.7-0.6-3.6,0.3-4.2,2c-0.6,1.7,0.3,3.6,2,4.2c1.7,0.6,3.6-0.3,4.2-2
		C210.1,21.7,209.2,19.8,207.5,19.1z"/>
	<ellipse transform="matrix(0.2249 -0.9744 0.9744 0.2249 146.6076 215.1465)" class="st3" cx="208.5" cy="15.4" rx="3" ry="3"/>
	<ellipse transform="matrix(0.5395 -0.842 0.842 0.5395 88.2375 178.9546)" class="st3" cx="207.7" cy="8.8" rx="2.7" ry="2.7"/>
	<ellipse transform="matrix(0.5398 -0.8418 0.8418 0.5398 84.1445 174.107)" class="st3" cx="201.3" cy="10.1" rx="2.5" ry="2.5"/>
	<ellipse transform="matrix(0.5396 -0.8419 0.8419 0.5396 78.7657 171.2695)" class="st3" cx="196" cy="13.6" rx="2.5" ry="2.5"/>
	<ellipse transform="matrix(0.5397 -0.8418 0.8418 0.5397 73.3227 168.9745)" class="st3" cx="191.2" cy="17.4" rx="2.5" ry="2.5"/>
	<ellipse transform="matrix(0.5396 -0.8419 0.8419 0.5396 67.7844 166.9824)" class="st3" cx="186.6" cy="21.5" rx="2.4" ry="2.4"/>
	<ellipse transform="matrix(0.5396 -0.8419 0.8419 0.5396 62.2514 165.2897)" class="st3" cx="182.3" cy="25.7" rx="2.4" ry="2.4"/>
	<ellipse transform="matrix(0.5399 -0.8418 0.8418 0.5399 56.778 163.6798)" class="st3" cx="178.1" cy="29.9" rx="2.3" ry="2.3"/>
	<ellipse transform="matrix(0.5396 -0.842 0.842 0.5396 51.4435 162.3792)" class="st3" cx="174.2" cy="34.2" rx="2.2" ry="2.2"/>
	<ellipse transform="matrix(0.5398 -0.8418 0.8418 0.5398 45.9583 161.0565)" class="st3" cx="170.3" cy="38.5" rx="2" ry="2"/>
	<ellipse transform="matrix(0.6275 -0.7786 0.7786 0.6275 7.5059 162.1147)" class="st1" cx="173.2" cy="73.2" rx="5" ry="5"/>
	<ellipse transform="matrix(0.6496 -0.7603 0.7603 0.6496 -3.9285 154.91)" class="st1" cx="166.1" cy="81.7" rx="4.4" ry="4.4"/>
	
		<ellipse transform="matrix(0.6495 -0.7603 0.7603 0.6495 -12.1964 152.7288)" class="st2" cx="159.6" cy="89.6" rx="4.1" ry="4.1"/>
	<ellipse transform="matrix(0.7224 -0.6914 0.6914 0.7224 -24.1741 132.5716)" class="st3" cx="153" cy="96.4" rx="3.7" ry="3.7"/>
	
		<ellipse transform="matrix(0.8002 -0.5998 0.5998 0.8002 -32.1165 108.6958)" class="st3" cx="147.1" cy="102.5" rx="3.3" ry="3.3"/>
	<ellipse transform="matrix(0.8677 -0.4972 0.4972 0.8677 -34.9055 84.5528)" class="st3" cx="141.4" cy="107.8" rx="3" ry="3"/>
	<ellipse transform="matrix(0.6498 -0.7601 0.7601 0.6498 -37.8664 142.7502)" class="st3" cx="136" cy="112.5" rx="2.7" ry="2.7"/>
	
		<ellipse transform="matrix(0.6498 -0.7601 0.7601 0.6498 -42.6168 139.8729)" class="st3" cx="130.5" cy="116.2" rx="2.5" ry="2.5"/>
	<ellipse transform="matrix(0.6499 -0.76 0.76 0.6499 -46.4929 135.9499)" class="st3" cx="124.3" cy="118.4" rx="2.5" ry="2.5"/>
	
		<ellipse transform="matrix(0.6497 -0.7602 0.7602 0.6497 -43.0398 132.0591)" class="st3" cx="121.8" cy="112.7" rx="2.5" ry="2.5"/>
	
		<ellipse transform="matrix(0.6497 -0.7602 0.7602 0.6497 -37.6413 131.3578)" class="st3" cx="123.7" cy="106.5" rx="2.4" ry="2.4"/>
	
		<ellipse transform="matrix(0.6496 -0.7602 0.7602 0.6496 -32.1048 131.3188)" class="st3" cx="126.4" cy="100.5" rx="2.4" ry="2.4"/>
	<ellipse transform="matrix(0.461 -0.8874 0.8874 0.461 -14.169 165.9591)" class="st3" cx="129.5" cy="94.6" rx="2.3" ry="2.3"/>
	
		<ellipse transform="matrix(0.4917 -0.8707 0.8707 0.4917 -10.2685 160.8589)" class="st3" cx="132.7" cy="89.2" rx="2.2" ry="2.2"/>
</g>
</svg>
